Basics/Flipflops/T_Flipflop/T_Flipflop.sim/sim_1/behav/xsim/dump.vcd
$date
   Wed Aug 13 00:03:55 2025
$end

$version
  2025.1.0
  $dumpfile ("dump.vcd") 
$end

$timescale
  1ps
$end

$scope module tff_tb $end
$var reg 1 ! t $end
$var reg 1 " clk $end
$var wire 1 # q $end
$var wire 1 $ qb $end
$upscope $end
$scope module glbl $end
$upscope $end
$enddefinitions $end

#0
$dumpvars
0!
0"
0#
1$
$end

#1000
1"

#2000
0"

#3000
1"

#4000
0"

#5000
1!
1"
1#
0$

#6000
0"

#7000
1"
0#
1$

#8000
0"

#9000
1"
1#
0$

#10000
0"

#11000
1"
0#
1$

#12000
0"

#13000
1"
1#
0$

#14000
0"

#15000
1"
0#
1$

#16000
0"

#17000
1"
1#
0$

#18000
0"

#19000
1"
0#
1$

#20000
0!
0"

#21000
1"

#22000
0"

#23000
1"

#24000
0"

#25000
1!
1"
1#
0$

#26000
0"

#27000
1"
0#
1$

#28000
0"

#29000
1"
1#
0$

#30000
0!
0"

