Basics/Flipflops/JK_Flipflop/JK_Flipflop.sim/sim_1/behav/xsim/dump.vcd
$date
   Tue Aug 12 23:41:07 2025
$end

$version
  2025.1.0
  $dumpfile ("dump.vcd") 
$end

$timescale
  1ps
$end

$scope module jkff_tb $end
$var reg 2 ! jk [1:0] $end
$var reg 2 " clk [1:0] $end
$var wire 1 # q $end
$var wire 1 $ qb $end
$upscope $end
$scope module glbl $end
$upscope $end
$enddefinitions $end

#0
$dumpvars
b1 !
b0 "
x#
x$
$end

#2000
b11 "
0#
1$

#4000
b0 "

#5000
b10 !

#6000
b11 "
1#
0$

#8000
b0 "

#10000
b11 !
b11 "
0#
1$

#12000
b0 "

#14000
b11 "
1#
0$

#15000
b0 !

#16000
b0 "

#18000
b11 "

#20000
b1 !
b0 "

#22000
b11 "
0#
1$

#24000
b0 "
